import java.util.Scanner;
public class Main
{
	public static void main(String[] args)
	{
	    int i,m,n,sum=0;
	    
	    Scanner sc= new Scanner(System.in);
	    
	    System.out.println("Enter your last limit number :");
	    m=sc.nextInt();
	    
	    System.out.println("Enter your Starting even number :");
	    n=sc.nextInt();
	    
	    for(i=n;i<=m;i++)
	    {
	        if(i%2==0)
	        {   
	            //for printing even number
	            System.out.println(i);
	            //Logic of adding even number
	            sum=sum+i;
	        }
	        
	          
	    }
	       //Printimng sum of even number
	       System.out.println("Your sum of all even number is:"+sum);
	    
	}
}